<?xml version="1.0" encoding="utf-8"?>
<!-- Generator: Adobe Illustrator 18.1.1, SVG Export Plug-In . SVG Version: 6.00 Build 0)  -->
<svg version="1.1" baseProfile="tiny" id="Layer_1" xmlns="http://www.w3.org/2000/svg" xmlns:xlink="http://www.w3.org/1999/xlink"
	 x="0px" y="0px" viewBox="0 0 41.7 20.3" xml:space="preserve">
<g>
	<path fill="#F9F3E9" d="M29.9,15.1l-1.7,0.6h-3.6l-3.2-1.1l-1.7,0.5h-2.2l-2.7-0.7L14,13.6v-1l0.4-0.8h-1.2l-1.1-1.1V9.4l0.5-1
		h-1.2l-1.1-1.1V5.6l1.3-1.3L9.4,4.8H7.1L4.5,5.2h-2L0.8,4.3L0,2.7L11.7,0h9.8l9.2,3.4V14l0.3,1.1H29.9z M40.3,20.3h-6l-0.8-1.7
		l-1.1-4.5V3.5l0.8-1.7h6.8l-1.1,2.9V12l1.4,5.5l1.4,1.4L40.3,20.3z M39.2,17.9l-1.5-5.6v-8l0.6-1.5H34l-0.4,0.8v10.2l1,4.3L35,19
		h4.8l0.3-0.3L39.2,17.9z M37.3,18h-1.3l-0.6-0.6v-1.3l0.6-0.6h1.3l0.6,0.6v1.3L37.3,18z"/>
	<path fill="#F9F3E9" d="M528.1,18.6l-0.8,1.7h-6l-1.4-1.4l1.4-1.4l1.4-5.5V4.8l-1.1-2.9h6.8l0.8,1.7v10.6L528.1,18.6z M527.9,3.6
		l-0.4-0.8h-4.3l0.6,1.5v8l-1.5,5.6l-0.8,0.8l0.3,0.3h4.8l0.4-0.8l1-4.3V3.6z M525.4,18h-1.3l-0.6-0.6v-1.3l0.6-0.6h1.3l0.6,0.6v1.3
		L525.4,18z M560.7,4.3L559,5.2h-2l-2.7-0.4h-2.2l-2.2-0.4l1.3,1.3v1.7l-1.1,1.1h-1.2l0.5,1v1.3l-1.1,1.1h-1.2l0.4,0.8v1l-0.8,0.8
		l-2.7,0.7h-2.2l-1.7-0.5l-3.2,1.1h-3.6l-1.7-0.6h-1.1l0.3-1.1V3.4L540,0h9.8l11.7,2.7L560.7,4.3z"/>
</g>
</svg>
